{
  "name": "avispa",
  "dockerComposeFile": ["docker-compose.yml"],
  "service": "avispa",
  "runServices": ["avispa"],
  "workspaceFolder": "/avispa",
  "extensions": [
    "eamodio.gitlens",
    "dariofuzinato.vue-peek",
    "Vue.volar",
    "editorconfig.editorconfig",
    "esbenp.prettier-vscode",
    "dbaeumer.vscode-eslint"
  ],
  "shutdownAction": "stopCompose",
  "settings": {
    "files.associations": {
      "Dockerfile*": "dockerfile"
    },
    "php.suggest.basic": false,
    "terminal.integrated.fontSize": 16,
    "remote.extensionKind": {
      "ms-azuretools.vscode-docker": "ui"
    }
  }
}
